<svg width="24" height="24" viewBox="0 0 24 24" fill="none" xmlns="http://www.w3.org/2000/svg">
<path d="M3 4.065H8C8.26522 4.065 8.51957 4.17036 8.70711 4.3579C8.89464 4.54543 9 4.79979 9 5.065V19.065C9 19.3302 8.89464 19.5846 8.70711 19.7721C8.51957 19.9596 8.26522 20.065 8 20.065H3C2.73478 20.065 2.48043 19.9596 2.29289 19.7721C2.10536 19.5846 2 19.3302 2 19.065V5.065C2 4.79979 2.10536 4.54543 2.29289 4.3579C2.48043 4.17036 2.73478 4.065 3 4.065ZM3 15.065V17.065H5V15.065H3ZM12 7.065H20C20.5304 7.065 21.0391 7.27572 21.4142 7.65079C21.7893 8.02586 22 8.53457 22 9.065V15.065C22 15.5954 21.7893 16.1041 21.4142 16.4792C21.0391 16.8543 20.5304 17.065 20 17.065H12C11.4696 17.065 10.9609 16.8543 10.5858 16.4792C10.2107 16.1041 10 15.5954 10 15.065V9.065C10 8.53457 10.2107 8.02586 10.5858 7.65079C10.9609 7.27572 11.4696 7.065 12 7.065ZM14 18.065H18C18.2652 18.065 18.5196 18.1704 18.7071 18.3579C18.8946 18.5454 19 18.7998 19 19.065C19 19.3302 18.8946 19.5846 18.7071 19.7721C18.5196 19.9596 18.2652 20.065 18 20.065H14C13.7348 20.065 13.4804 19.9596 13.2929 19.7721C13.1054 19.5846 13 19.3302 13 19.065C13 18.7998 13.1054 18.5454 13.2929 18.3579C13.4804 18.1704 13.7348 18.065 14 18.065Z" fill="white" fill-opacity="0.5"/>
</svg>
